[
  {
    "name": "case_1",
    "description": "Case 1: National Data Index<sup>1</sup> for 2013 (all components)",
    "controls": {
      "i": 1,
      "date": {
        "start": 2013,
        "end": 2013
      },
      "geography": {
        "option": "National",
        "region": null
      },
      "sources": {
        "Coal": true,
        "Natural gas": true,
        "Petroleum": true,
        "Nuclear": true,
        "Hydro": true,
        "Geothermal": true,
        "Solar/PV": true,
        "Wind": true,
        "Wood/Waste": true,
        "Fuel Ethanol": true,
        "Biodisel": true
      }
    },
    "result": "case1.html"
  },
  {
    "name": "case_2",
    "description": "Case 2: National Data Index<sup>2</sup> for 2013 (all components)",
    "controls": {
      "i": 2,
      "date": {
        "start": 2013,
        "end": 2013
      },
      "geography": {
        "option": "National",
        "region": null
      },
      "sources": {
        "Coal": true,
        "Natural gas": true,
        "Petroleum": true,
        "Nuclear": true,
        "Hydro": true,
        "Geothermal": true,
        "Solar/PV": true,
        "Wind": true,
        "Wood/Waste": true,
        "Fuel Ethanol": true,
        "Biodisel": true
      }
    },
    "result": "case2.html"
  },
  {
    "name": "case_3",
    "description": "Case 3: Northeast Regional Data Index<sup>1</sup> for 2013 (all components)",
    "controls": {
      "i": 1,
      "date": {
        "start": 2013,
        "end": 2013
      },
      "geography": {
        "option": "Regional",
        "region": "northeast"
      },
      "sources": {
        "Coal": true,
        "Natural gas": true,
        "Petroleum": true,
        "Nuclear": true,
        "Hydro": true,
        "Geothermal": true,
        "Solar/PV": true,
        "Wind": true,
        "Wood/Waste": true,
        "Fuel Ethanol": true,
        "Biodisel": true
      }
    },
    "result": "case3.html"
  },
  {
    "name": "case_5",
    "description": "Case 5: Pennsylvania State Data Index<sup>1</sup> for 2013 (all components)",
    "controls": {
      "i": 1,
      "date": {
        "start": 2013,
        "end": 2013
      },
      "geography": {
        "option": "State",
        "region": "PA"
      },
      "sources": {
        "Coal": true,
        "Natural gas": true,
        "Petroleum": true,
        "Nuclear": true,
        "Hydro": true,
        "Geothermal": true,
        "Solar/PV": true,
        "Wind": true,
        "Wood/Waste": true,
        "Fuel Ethanol": true,
        "Biodisel": true
      }
    },
    "result": "case5.html"
  }
]