Year,Northeast,Midwest,South,West,Alabama,Alaska,Arizona,Arkansas,California,Colorado,Connecticut,Delaware,Florida,Georgia,Hawaii,Idaho,Illinois,Indiana,Iowa,Kansas,Kentucky,Louisiana,Maine,Maryland,Massachusetts,Michigan,Minnesota,Mississippi,Missouri,Montana,Nebraska,Nevada,New Hampshire,New Jersey,New Mexico,New York,North Carolina,North Dakota,Ohio,Oklahoma,Oregon,Pennsylvania,Rhode Island,South Carolina,South Dakota,Tennessee,Texas,Utah,Vermont,Virginia,Washington,West Virginia,Wisconsin,Wyoming
1960,0,0,0,0.00516399124451758,0,0,0,0,0.010397162935707,0,0,0,0,0,0,0,0,0,0,0,0,0,0,0,0,0,0,0,0,0,0,0,0,0,0,0,0,0,0,0,0,0,0,0,0,0,0,0,0,0,0,0,0,0
1961,0,0,0,0.0137187408690199,0,0,0,0,0.0277114597544338,0,0,0,0,0,0,0,0,0,0,0,0,0,0,0,0,0,0,0,0,0,0,0,0,0,0,0,0,0,0,0,0,0,0,0,0,0,0,0,0,0,0,0,0,0
1962,0,0,0,0.0139589540967491,0,0,0,0,0.0284194322488503,0,0,0,0,0,0,0,0,0,0,0,0,0,0,0,0,0,0,0,0,0,0,0,0,0,0,0,0,0,0,0,0,0,0,0,0,0,0,0,0,0,0,0,0,0
1963,0,0,0,0.0222757233345037,0,0,0,0,0.0445588684680433,0,0,0,0,0,0,0,0,0,0,0,0,0,0,0,0,0,0,0,0,0,0,0,0,0,0,0,0,0,0,0,0,0,0,0,0,0,0,0,0,0,0,0,0,0
1964,0,0,0,0.025293653143816,0,0,0,0,0.0503266986441062,0,0,0,0,0,0,0,0,0,0,0,0,0,0,0,0,0,0,0,0,0,0,0,0,0,0,0,0,0,0,0,0,0,0,0,0,0,0,0,0,0,0,0,0,0
1965,0,0,0,0.0227319793899785,0,0,0,0,0.0450553362897956,0,0,0,0,0,0,0,0,0,0,0,0,0,0,0,0,0,0,0,0,0,0,0,0,0,0,0,0,0,0,0,0,0,0,0,0,0,0,0,0,0,0,0,0,0
1966,0,0,0,0.0212857090054421,0,0,0,0,0.0421338945447581,0,0,0,0,0,0,0,0,0,0,0,0,0,0,0,0,0,0,0,0,0,0,0,0,0,0,0,0,0,0,0,0,0,0,0,0,0,0,0,0,0,0,0,0,0
1967,0,0,0,0.0343046361884181,0,0,0,0,0.0681635942787197,0,0,0,0,0,0,0,0,0,0,0,0,0,0,0,0,0,0,0,0,0,0,0,0,0,0,0,0,0,0,0,0,0,0,0,0,0,0,0,0,0,0,0,0,0
1968,0,0,0,0.0440509494136276,0,0,0,0,0.0885930747270465,0,0,0,0,0,0,0,0,0,0,0,0,0,0,0,0,0,0,0,0,0,0,0,0,0,0,0,0,0,0,0,0,0,0,0,0,0,0,0,0,0,0,0,0,0
1969,0,0,0,0.0591552134423636,0,0,0,0,0.119871489997768,0,0,0,0,0,0,0,0,0,0,0,0,0,0,0,0,0,0,0,0,0,0,0,0,0,0,0,0,0,0,0,0,0,0,0,0,0,0,0,0,0,0,0,0,0
1970,0,0,0,0.0493894740464632,0,0,0,0,0.100200929135888,0,0,0,0,0,0,0,0,0,0,0,0,0,0,0,0,0,0,0,0,0,0,0,0,0,0,0,0,0,0,0,0,0,0,0,0,0,0,0,0,0,0,0,0,0
1971,0,0,0,0.049250261526698,0,0,0,0,0.0998345658266229,0,0,0,0,0,0,0,0,0,0,0,0,0,0,0,0,0,0,0,0,0,0,0,0,0,0,0,0,0,0,0,0,0,0,0,0,0,0,0,0,0,0,0,0,0
1972,0,0,0,0.123902439585544,0,0,0,0,0.256748261726239,0,0,0,0,0,0,0,0,0,0,0,0,0,0,0,0,0,0,0,0,0,0,0,0,0,0,0,0,0,0,0,0,0,0,0,0,0,0,0,0,0,0,0,0,0
1973,0,0,0,0.163191893433504,0,0,0,0,0.337644464446147,0,0,0,0,0,0,0,0,0,0,0,0,0,0,0,0,0,0,0,0,0,0,0,0,0,0,0,0,0,0,0,0,0,0,0,0,0,0,0,0,0,0,0,0,0
1974,0,0,0,0.206856104641888,0,0,0,0,0.440195618051149,0,0,0,0,0,0,0,0,0,0,0,0,0,0,0,0,0,0,0,0,0,0,0,0,0,0,0,0,0,0,0,0,0,0,0,0,0,0,0,0,0,0,0,0,0
1975,0,0,0,0.270326136720205,0,0,0,0,0.559773836787316,0,0,0,0,0,0,0,0,0,0,0,0,0,0,0,0,0,0,0,0,0,0,0,0,0,0,0,0,0,0,0,0,0,0,0,0,0,0,0,0,0,0,0,0,0
1976,0,0,0,0.289227763490594,0,0,0,0,0.606216429268394,0,0,0,0,0,0,0,0,0,0,0,0,0,0,0,0,0,0,0,0,0,0,0,0,0,0,0,0,0,0,0,0,0,0,0,0,0,0,0,0,0,0,0,0,0
1977,0,0,0,0.283398977346807,0,0,0,0,0.587469034982082,0,0,0,0,0,0,0,0,0,0,0,0,0,0,0,0,0,0,0,0,0,0,0,0,0,0,0,0,0,0,0,0,0,0,0,0,0,0,0,0,0,0,0,0,0
1978,0,0,0,0.225832364762275,0,0,0,0,0.476493345063287,0,0,0,0,0,0,0,0,0,0,0,0,0,0,0,0,0,0,0,0,0,0,0,0,0,0,0,0,0,0,0,0,0,0,0,0,0,0,0,0,0,0,0,0,0
1979,0,0,0,0.284722483974902,0,0,0,0,0.598310755134391,0,0,0,0,0,0,0,0,0,0,0,0,0,0,0,0,0,0,0,0,0,0,0,0,0,0,0,0,0,0,0,0,0,0,0,0,0,0,0,0,0,0,0,0,0
1980,0,0,0,0.384242240237473,0,0,0,0,0.805607624647597,0,0,0,0,0,0,0,0,0,0,0,0,0,0,0,0,0,0,0,0,0,0,0,0,0,0,0,0,0,0,0,0,0,0,0,0,0,0,0,0,0,0,0,0,0
1981,0,0,0,0.439682326800323,0,0,0,0,0.938679676606634,0,0,0,0,0,0,0,0,0,0,0,0,0,0,0,0,0,0,0,0,0,0,0,0,0,0,0,0,0,0,0,0,0,0,0,0,0,0,0,0,0,0,0,0,0
1982,0,0,0,0.380939582246366,0,0,0,0,0.833586761139943,0,0,0,0,0,0,0,0,0,0,0,0,0,0,0,0,0,0,0,0,0,0,0,0,0,0,0,0,0,0,0,0,0,0,0,0,0,0,0,0,0,0,0,0,0
1983,0,0,0,0.479702273845823,0,0,0,0,1.04951438406183,0,0,0,0,0,0,0,0,0,0,0,0,0,0,0,0,0,0,0,0,0,0,0,0,0,0,0,0,0,0,0,0,0,0,0,0,0,0,0,0,0,0,0,0,0
1984,0,0,0,0.572137010427477,0,0,0,0,1.22779872888881,0,0,0,0,0,0.0929328044194711,0,0,0,0,0,0,0,0,0,0,0,0,0,0,0,0,0,0,0,0,0,0,0,0,0,0,0,0,0,0,0,0,0.078801430245959,0,0,0,0,0,0
1985,0,0,0,0.687718311438039,0,0,0,0,1.45852080972801,0,0,0,0,0,0.0792581118867052,0,0,0,0,0,0,0,0,0,0,0,0,0,0,0,0,0,0,0,0,0,0,0,0,0,0,0,0,0,0,0,0,0.221736796097122,0,0,0,0,0,0
1986,0,0,0,0.766395768346313,0,0,0,0,1.62915635159975,0,0,0,0,0,0.07500132475166,0,0,0,0,0,0,0,0,0,0,0,0,0,0,0,0,0,0,0,0,0,0,0,0,0,0,0,0,0,0,0,0,0.358671734346869,0,0,0,0,0,0
1987,0,0,0,0.77312468766056,0,0,0,0,1.59784521177465,0,0,0,0,0,0.0533149470257876,0,0,0,0,0,0,0,0,0,0,0,0,0,0,0,0,0,0,0,0,0,0,0,0,0,0,0,0,0,0,0,0,0.290670449185459,0,0,0,0,0,0
1988,0,0,0,0.703993409383962,0,0,0,0,1.46671607621831,0,0,0,0,0,0.0579922262801439,0,0,0,0,0,0,0,0,0,0,0,0,0,0,0,0,0,0,0,0,0,0,0,0,0,0,0,0,0,0,0,0,0.270819533931475,0,0,0,0,0,0
1989,0.00206746854153499,0.0102716051503243,0.00641642787967844,0.992733459572067,0.000595212972612628,0.00885118553820415,0.0225538004113429,0.0103887953661732,1.94038676716655,0.043461773740179,0,0.0206915959014087,0.0356490105552472,0.00162843368445885,0.0474530311834205,0.134453781512605,0.00655799213632238,0.0173528512688267,0.00606621928299455,0.00193353049485198,0.013679295938144,0.00289641952059208,0,0.00492234806604731,0.0000688359158274421,0.0182455218079425,0.00941137929151711,0.000521113974921911,0.00267792877231988,0.0262328393509246,0.0100242192296746,1.88756221611771,0,0.00237514277364932,0.0164823487057742,0.0013313313659806,0.00537570095992584,0.0122544629811526,0.00796659106016552,0.0000726018167878633,0.0376469469316748,0.00406692791370273,0,0.00555507178053563,0.0591460224299916,0.00131640726130245,0.00195406101249573,0.331541802710406,0,0.00489183690004296,0.00277923770472684,0,0.00468263290598262,0.0994480556296181
1990,0.00276211443717868,0.0118372725338512,0.00726609357156857,1.02647357156431,0.000723496782387194,0.00873166564226537,0.0208062051862111,0.0114572934690245,2.04903477986953,0.0434529774409308,0,0.0215312222296168,0.0392600217454189,0.00170436799691169,0,0.132616806706056,0.0074295022783807,0.0186871704385343,0.00678266823708763,0.00383780884320409,0.0153131243167245,0.00313634413730448,0,0.0056739153562155,0.00142828169142831,0.0199161800560267,0.0103882035858646,0.00242951963537769,0.00301355295214344,0.0263048016701461,0.0145458248028132,2.02166316449377,0,0.00280521021043084,0.0156986081909165,0.00195551288549052,0.00598347684759306,0.0153412109828104,0.00923083716776634,0.0000720618925182461,0.0382314445829359,0.00484995627836444,0,0.00598149384161442,0.0711872084906925,0.00145430381637289,0.00229047892555575,0.287181721256033,0,0.00637064082530887,0.00370053181928717,0,0.00532312371680712,0.0935909656597586
1991,0.00342331600207963,0.0130028446124593,0.00800263169818493,1.07154384386241,0.000739147077069282,0.0084624829920685,0.0199643517887975,0.012535705331639,2.12238602865219,0.0415142527180134,0,0.0236857376330842,0.0431351887626671,0.00190650076858583,0,0.129227053140097,0.00805635599744836,0.0206454825293297,0.00706298311323831,0.0058152092644591,0.0164732242539914,0.00340572182064169,0,0.00616450210976133,0.00287173294356308,0.021525654775799,0.0111103562673732,0.00322305126263033,0.00323375779154141,0.0247933884297521,0.0180616966307853,2.43021417588843,0,0.00298912135656877,0.0173698089751669,0.00259434754480507,0.00658458538733086,0.017672962735556,0.0100395029141188,0.0000725937003186863,0.0392948870590472,0.00582408738895057,0,0.00641610225392626,0.0825452229900238,0.00162286607101886,0.00263703594832612,0.335576659756483,0,0.00771849824429555,0.00461285641523396,0,0.00564147507517594,0.0963504126440246
1992,0.00391068332118525,0.0142728825951411,0.00853695297171249,1.0682159199507,0.000744839750210541,0.00813092381643244,0.0193532265993359,0.0132588592330066,2.11087055333113,0.0419324338215612,0,0.0242214140007342,0.0457414221984664,0.00205453343731312,0.00751484181257984,0.127851567914275,0.00871203098395222,0.0224944635645256,0.00769060587225166,0.00770591266322841,0.0172449989503044,0.00355597610787571,0,0.00678290166149171,0.00399542978908336,0.0237111650867979,0.0119457254094768,0.00398287179876679,0.00352094196491149,0.0264539711399772,0.022322875186324,2.74575921997818,0,0.0030964033366503,0.0173948135623882,0.00312407796310117,0.00676112839476726,0.0196918229705115,0.0107077619669789,0.0000706312954556531,0.0410114280500119,0.00641030663345653,0,0.00683024632287286,0.0918487712312864,0.00169420107762119,0.00292233138076541,0.330763701960342,0,0.00897282687156125,0.00566707036400668,0,0.00604360196049192,0.0872429089931442
1993,0.00445564697464209,0.0148731437416004,0.00894386155727229,1.10558726104334,0.000772596765330493,0.00817702128751208,0.0196418063831727,0.0133806047630929,2.17744648716067,0.0393694048373017,0,0.0253042086852975,0.0482303127665428,0.00202463442952826,0.55496641922941,0.12295628272131,0.00871602339733471,0.0231695154526558,0.00770553019975105,0.00896705661641305,0.0171734790080505,0.00371808857528051,0,0.00691485356645097,0.00524447285006332,0.0243924088113511,0.0122866223256119,0.00477761137806525,0.00345676878537787,0.0265224630527355,0.0251311586504048,3.41315039861091,0,0.00329537177708415,0.0173716432353057,0.00364058449185413,0.00689915153963811,0.0221644851066974,0.0112044120484778,0.0000674643198078616,0.0406199808997572,0.00705976501536965,0,0.00694609489863809,0.0942338482747789,0.00177009853012091,0.00319893195305553,0.262105862695398,0,0.00992931778805799,0.00643068782250141,0,0.00617571030121082,0.091506014158758
1994,0.00464039806016535,0.0158856965368471,0.00892360242840509,1.0110112327549,0.000651796093972236,0.00818415963925508,0.0186238990395276,0.011913109844684,1.96130357937903,0.0385536860077658,0,0.0238585754536916,0.0439347766432213,0.00186776697089613,0.638672416499928,0.119010544111759,0.00814401561969654,0.0248225557748009,0.0160424982108292,0.0103902348965914,0.021472736371706,0.00558782343725006,0,0.0063366082655329,0.00668739759922426,0.0263076516741974,0.0110945509714416,0.00916641027944846,0.00318677244299814,0.0257035846300724,0.0280499080586347,3.12488688644828,0,0.00290083963191568,0.0197337046193314,0.00419129734260862,0.00627956629128815,0.0222219542572269,0.0124179170644346,0.0000690860127767672,0.0397014143022161,0.00699994542805703,0,0.006463448511069,0.0975140202561312,0.00155792683560133,0.00312189155500869,0.327561442706671,0,0.0103448127229702,0.0074571615313793,0,0.00556405789799676,0.088234134510151
1995,0.0051905763227771,0.0167122756274925,0.00945288144386233,0.859735633903803,0.000670203853672159,0.0072426001218461,0.0186761818004154,0.0123974020344988,1.64538390852171,0.0377387882418175,0,0.0252624276061776,0.045722022311681,0.00183386483575639,0.814297159553769,0.112426469636222,0.00840415718871548,0.0264639079318456,0.0173287901631779,0.0123141799110544,0.0226188820165186,0.00615262988106658,0,0.00671056937296138,0.00789530264739367,0.0268502261640392,0.0112204061787037,0.0104507089654684,0.00325637242480148,0.0243029302390174,0.0295214319178021,3.23153578637984,0,0.00310791278631647,0.0224120117106285,0.00465887153563367,0.00640321059523567,0.0244872238337746,0.0132638400499671,0.0000692064990439122,0.0388989666739843,0.00765728637656752,0,0.00667099510771676,0.0997831326270726,0.00164668856076332,0.0033285037044447,0.248658925430815,0,0.011104095552833,0.00802841875678551,0,0.00571300007892186,0.0917319673892149
1996,0.00599910876654885,0.0179509056667739,0.0100975731917908,0.894857127358169,0.000665592566662216,0.00709524743632015,0.0180138957823921,0.0125148840967564,1.74745679667148,0.0362501562124702,0,0.0257419855409805,0.0489223802823845,0.00183835588983995,0.883178312359908,0.106481695816618,0.00867679604100108,0.0282102881570794,0.0199629082035967,0.0148847204067806,0.02522899517958,0.00683607991833163,0,0.00688685051138528,0.010039117942327,0.0281695916671004,0.0114237588663256,0.0130758233222463,0.00326824823585032,0.0239029766794212,0.0334162773073641,3.00624127613612,0,0.00326585117153339,0.0221312838756414,0.00547315558511117,0.00654620021717019,0.0273172023873579,0.0143543009407029,0.0000677896703456121,0.0396193599864687,0.00852270439503115,0,0.00704383056796532,0.106752166225229,0.00165873887059397,0.00350961858525676,0.312593203667862,0,0.0126292975258799,0.00921949373137863,0,0.00584632342882896,0.0889754118026089
1997,0.00653346480600364,0.0197262776675879,0.0107321785928032,0.900423607231118,0.000726311044841162,0.00719506672366288,0.0171305223441752,0.0133046243072771,1.75397260979094,0.0365316772306322,0,0.0275130053252146,0.0524765115080613,0.00196215297598652,0.915888806859298,0.10465724751439,0.00959899800833624,0.0300706343744588,0.0222854394878138,0.0172723411946228,0.0266644519143765,0.00729471817923834,0,0.0073381677182261,0.0112740199257863,0.0310766475468831,0.0124920138120654,0.0146538822382808,0.00348465543221249,0.0234142860593942,0.0365360845397853,3.02918189784123,0,0.00347891040526107,0.0226431503826821,0.00592752743741938,0.00706058976982477,0.0303430609945818,0.0156085207936131,0.000135167008977117,0.0395702399048131,0.00933916307146395,0,0.00730686794310385,0.108286531035755,0.0018235637956544,0.00366976388771694,0.273669457455833,0,0.0138296970298799,0.010048248269283,0,0.00622920295649298,0.0896629281784748
1998,0.00797206611697373,0.0224261293270172,0.0118578100205129,0.882580639957366,0.000770612932683107,0.00705094793773598,0.0162708898057406,0.0137940297261341,1.70257679401457,0.0352153005352384,0,0.0288534936467529,0.0554455466162989,0.00201115111466255,0.883897924046191,0.110196885101381,0.0101987414017119,0.0329603124665853,0.0270935101654314,0.0220216590534224,0.0307311166474133,0.00913135285487252,0,0.00761179828734538,0.0151716477891381,0.0343049227892794,0.0130661391631766,0.0194704729840639,0.00355136530873385,0.0235326637107649,0.0449593486532434,2.69059537340702,0,0.00367224480652778,0.0238873555399191,0.0075708998142316,0.00717883533333523,0.0356797239870409,0.0177412012238439,0.000135048083870262,0.0446806719829802,0.0112601048818574,0,0.00722624326596801,0.15626771169012,0.00180370899528662,0.00413922890016036,0.255468795297197,0,0.0163109476033213,0.0141805799449449,0,0.0065295274970431,0.083485124468731
1999,0.00845007001897883,0.0234626591213983,0.0129538564712219,0.879211727337136,0.00262065251711561,0.011855577015069,0.0190623839843982,0.0171170745493172,1.72256259779115,0.0472483311754914,0.000610272596563433,0.0310144513404167,0.055409219045975,0.00324667447771354,0.802217415019499,0.239353782719112,0.0105216005583399,0.0351748092304989,0.026965876609285,0.0218361152083795,0.0321055600699331,0.010669725163494,0.00113327289211242,0.00840102207688929,0.015445514239944,0.0360208621346762,0.0140912211692116,0.021289841842281,0.00398586418652552,0.0475286808035791,0.0458686665405278,2.51588404605928,0.0013917845740165,0.00398007620675325,0.0827338129496403,0.00769477651266275,0.00808176156540489,0.0364067066007786,0.0186549538493706,0.000137007133961465,0.0582098089827899,0.011810643261716,0.00224534427863824,0.00809076632236632,0.162879804395146,0.0020028169853785,0.00463409873747196,0.254191819185768,0.0031804592583169,0.0167694669929725,0.0142315544864036,0.000588305371669272,0.00701214623314571,0.0883198045644623
2000,0.00829034921436583,0.023074796913548,0.0125632488833808,0.829543967076119,0.00255803226256303,0.0115882193622976,0.0182907370207715,0.0167592059977008,1.61219608650771,0.0461884167761444,0.000581596202409437,0.0291595815436231,0.05328108477028,0.00311693898780318,0.980277446671591,0.242357038089181,0.0101542568078625,0.0335479007947168,0.027040390617757,0.021588633285918,0.0320274158971861,0.00991077228429457,0.0010403229162332,0.00817323376764605,0.014909677700268,0.0360287680658983,0.0137395886074839,0.0211607810572535,0.00411929936284459,0.0536400070759158,0.0477392482261886,2.24066783945984,0.00138614739736965,0.0041235763049603,0.0853325924612127,0.00759506262129131,0.00772283367757864,0.0361438235024811,0.0185041290608298,0.000134434621754748,0.0683235653618328,0.0112834941470462,0.00253544552848827,0.00791213047693614,0.165335627583369,0.00197290331993747,0.00450679539742317,0.242493783774053,0.00298354277803635,0.0160886012678991,0.0152148257545505,0.000588249135273771,0.0068847073038739,0.0868195950920404
2001,0.00903379246425354,0.0256373784647073,0.0146023563248737,0.845582435570008,0.00283595855835574,0.0116877045348294,0.0182108447801501,0.0191319163682569,1.6110656943525,0.0427799742433523,0.000604083605170956,0.0341735469407841,0.0605437092633609,0.00358262617849779,0.792749468232683,0.303479229641934,0.0112545418843475,0.038270736759521,0.0297326088429001,0.0246356678222603,0.0351319828083315,0.0125207452786564,0.00124147777237505,0.00920363459897254,0.0158517962727143,0.040140741655998,0.0148921835693943,0.0253535720978427,0.00443772652023252,0.057776940034912,0.0519316973132335,2.04403273827461,0.0017007574039639,0.00440954192208666,0.0919486383378477,0.00826600612541295,0.00887154359732813,0.0394876711593106,0.0212604726810519,0.000330640596316928,0.0837853460305597,0.0124727960065042,0.00247002623167858,0.00917479451518551,0.191442251584694,0.00227795102860879,0.00521495659344345,0.262459555164392,0.00379266750948167,0.0190275542231484,0.0170737061440951,0.000799659025391573,0.00772780404450567,0.0865657893548591
2002,0.00978145004099219,0.0274357342536956,0.015515824299004,0.872758535822259,0.0028085837025014,0.0117331019456485,0.0183845944602339,0.0203061418063382,1.68880927961489,0.0430003930620122,0.000613249375405511,0.0352823885853381,0.0641587648751121,0.00364622237730973,0.26254918409682,0.308426079541675,0.0121434619671234,0.0408466257709759,0.0316433172143933,0.0257581818476463,0.0376053835723473,0.0131243695658415,0.00138613037942349,0.00947599086619769,0.0170359530408197,0.0429474122913461,0.0155043973777048,0.0273444930568765,0.00480335392838793,0.0555371744576263,0.0547552310801121,2.02951022779431,0.0018987788139685,0.00475565792310746,0.0978305935099603,0.00902626972258844,0.00957567263237586,0.0433077573428143,0.0234860844308051,0.000398651759748531,0.0869710325601484,0.0133117442133758,0.00250233968760791,0.00957894687656242,0.191116629764826,0.00243320185031483,0.0055238425440622,0.3463749980005,0.00381876157562103,0.0204325151406636,0.0179045224404154,0.000717265954325939,0.00825130949868534,0.0885471556364277
2003,0.0128477214975807,0.0356680939740051,0.0203054853252753,0.863300649021201,0.00257058110888235,0.0121336887095345,0.0146690902916839,0.0250238258767656,1.69159520435107,0.039722298311507,0.000782912815947263,0.046723436739099,0.0842202839522776,0.00423028450524623,0.599721475189129,0.279549822511431,0.0155599065664658,0.0521940526096539,0.0431556224742673,0.0341414586128267,0.0513497148266352,0.0175614739395253,0.00187819684755094,0.011916353570318,0.0237714151403882,0.055688837366959,0.0191152346260056,0.0340532172438219,0.006000330018151,0.0530298631674699,0.0750246907429496,1.83404971895641,0.0021180955967146,0.00609676887189055,0.0715136765142989,0.011679843116153,0.0123769963241485,0.0584709602284717,0.0304625896936503,0.000520139475400329,0.0896501356194615,0.0174599573161653,0.00324457113722218,0.0125510142751583,0.239291067343343,0.00312967215342905,0.00740223202401563,0.306022336376281,0.00482020630482985,0.0265029610773309,0.0245570167698575,0.000891063082810948,0.010908119778678,0.090963061862526
2004,0.0140663374596445,0.0390308826711203,0.021807637526988,0.847970718016519,0.0027423092340811,0.0113543405837679,0.014857265377561,0.0272346424652158,1.61354150369552,0.0406657901572869,0.000773904814130175,0.0531301965817274,0.0891488336187223,0.00436357712477115,0.677942520339857,0.278483788336373,0.0167633891255665,0.0575130556925173,0.046549936759185,0.0392203470406465,0.0543699808664372,0.0185686217977481,0.00202374254756807,0.0130823076932992,0.026935981926825,0.0617113362614225,0.0209542591441604,0.0384287110301121,0.00648431002824277,0.0512888633059547,0.0819076651329753,1.98744168905219,0.0022030653451212,0.00653719113729119,0.0767269142620187,0.0127538804510986,0.0130515309143993,0.0660486826319826,0.0332337655057538,0.000527333682252453,0.0902717178707911,0.0189584546772269,0.00328709486555782,0.0128542680602466,0.265053817938812,0.00335323211866912,0.00810212702960495,0.297356414637352,0.00480850143052918,0.0280340376346173,0.0270399384291312,0.000910697047520172,0.0116779022241096,0.0921364492049702
2005,0.0162674780952204,0.0445173426601848,0.0253805370387159,0.836351744977971,0.00315614288587185,0.0112824935815148,0.0167076782112984,0.0311958374562789,1.62428813540189,0.0427318733865186,0.000929895200810869,0.0581743180218088,0.101145171378791,0.00492209102007924,0.681462324999923,0.298627293555525,0.0187209975694054,0.0663988622961737,0.053398390785435,0.0497347784917768,0.0619320188537474,0.0223863168477882,0.00221768828173512,0.0147512421432225,0.0318066372095875,0.0698539468572906,0.0243351660294356,0.0466463819097628,0.00725573492784827,0.0511882355010642,0.0972950243237561,1.8600508939878,0.00245086025194843,0.00719908213587344,0.0841036742335596,0.0152772975703249,0.0147825343609932,0.0731597655754321,0.0380117779407051,0.000616749434440769,0.0962193608409398,0.0218627969732702,0.00388014240122613,0.0145823772246379,0.292636572732606,0.00376244200649735,0.0097464659616639,0.285127789194534,0.00602347952318136,0.0316366074426834,0.0312469428370764,0.0010410346099392,0.0128389652405395,0.0957371892075274
2006,0.018676813800541,0.0514661779485908,0.0285251969776715,0.80831901352797,0.00340028154331179,0.01165733856261,0.0166202226994021,0.0359370841133891,1.56114133206754,0.0421938861548775,0.00109418501452835,0.070670888443924,0.113417768062692,0.00556667812366699,0.642938172705237,0.288113505272859,0.0223868131736115,0.0769439697082335,0.0581541479185251,0.0529632146400137,0.0692550772535159,0.0235265883517877,0.00281085943108205,0.0183489979408347,0.0356054548967019,0.0842377670390029,0.0287463221617234,0.0479067393485838,0.00849521724356144,0.0478593582077096,0.103699567538617,1.97463501157932,0.00315934266230515,0.00872087975919323,0.0830959871910576,0.0178585398194075,0.0174970923949403,0.0830389371016051,0.0447688549383123,0.000659446724198398,0.0924077804748124,0.0249593359754531,0.00455977869874049,0.0170853600169184,0.314753098520987,0.0043697047074699,0.0108694995803165,0.282667266865703,0.00617873392124923,0.0357152733231056,0.0314762644540804,0.00111067260111378,0.0156536385864335,0.0878885071509285
2007,0.0204592438916352,0.0581716708211051,0.0328635315498687,0.803945705013581,0.00390137173026234,0.0120318969737705,0.0168700381419273,0.0419683687365257,1.58405004061045,0.0419684486474468,0.0013130675286756,0.0840516287980617,0.133535429607526,0.00659088555203212,0.670773684489241,0.283910389975026,0.0262787596156625,0.0905131074168798,0.0618365859902716,0.0514785371270564,0.0787239282065191,0.0262462047987861,0.00344865491681198,0.0217015761184442,0.0370736275377413,0.0998878167684932,0.0335565907156473,0.0505219925743281,0.0102179819283355,0.0458756620503937,0.108596172497166,1.86775293568388,0.00375276766615379,0.0100447064397063,0.086686309247487,0.0188572121181191,0.0206836850737824,0.0916371728997087,0.0499482978301886,0.000825359281843098,0.0935689816976483,0.0280585562321243,0.00558355794464156,0.0204770153759266,0.313918394675836,0.00525337272935777,0.0124952480638882,0.248265080902382,0.00852935621637758,0.0389867528232308,0.0334720953991501,0.00124062416531536,0.0187613581739369,0.0776712143725517
2008,0.0237678343027655,0.0694093974659821,0.0393790103364397,0.829802930301344,0.00472304012000559,0.0199872081867605,0.0200283022894648,0.0498784865890527,1.60081325473325,0.0472158139347184,0.00181695242569638,0.100765336724167,0.161125883777461,0.00770030808016733,0.829664444436484,0.433965398492227,0.0312881387091082,0.10745980563968,0.0656371990188966,0.0585568664512499,0.0924124634771497,0.0316702373064005,0.0104387024479822,0.026566486037268,0.0410553686035209,0.121298213892391,0.0398619347228323,0.0577649753984626,0.0124205740366711,0.0442189186889174,0.117540820612044,2.14833034178178,0.00479660016979965,0.0122838154377909,0.0420579892655442,0.0212233815799344,0.0245434383691311,0.101724287587353,0.0589968279790574,0.00098195229444706,0.0924403139107496,0.0325446868656148,0.00727461678358015,0.0250428661673134,0.470859123865702,0.00640302854478897,0.0148148639038065,0.353887987039148,0.0120284834488068,0.0456702412236954,0.0364140817135691,0.001728225300467,0.0225012279470596,0.0677811039623952
2009,0.030117064115579,0.0889522497086649,0.0503102009623508,0.859718980615938,0.00542288612885983,0.0239654389801833,0.0193200743206263,0.0618738795275021,1.63499471831325,0.0477793567129996,0.00222202180456926,0.140789418159917,0.205000367806202,0.00949322352379514,0.597730588308055,0.421005850830604,0.0407939761518977,0.14417447765314,0.0796363605645657,0.0682190246973259,0.117180303537465,0.0402885081271463,0.0142168275964938,0.0332963602145491,0.050029707448145,0.163259021121894,0.0536827350359376,0.0685421278063644,0.0160865273462948,0.0505632748821876,0.136014003714075,2.63112328900284,0.00641224585063571,0.0167114334336999,0.0383450888650459,0.0260087920668256,0.0322453708764182,0.123360751948225,0.0782704810027333,0.00127047737279799,0.0999422576777036,0.0418183750874623,0.00894713297018499,0.031687091685513,0.506094976300883,0.00873665559863612,0.0184288133107457,0.399080628008828,0.0138610128519311,0.0573241482916415,0.0436934213789683,0.00245212453886436,0.0301562264853234,0.0724013608025648
2010,0.0333550223133598,0.0966182320555554,0.05360868324866,0.873478639719097,0.00562514062851571,0.0238631844093862,0.0197802467104399,0.0648464364240672,1.6046966983161,0.0480705123076513,0.00258702091606411,0.164541667991479,0.222421987521369,0.00969208880020987,0.717359066702705,0.411684059670886,0.0450787122491593,0.153410904215981,0.085594203004576,0.076040521372758,0.128864869683881,0.0418914119662279,0.016253517725622,0.0372970780325655,0.0547030284283906,0.177773261057747,0.0584692578810628,0.0725749771664692,0.0177471672589369,0.050040893633507,0.141895207122622,3.36743160755901,0.00693629017474497,0.0186163404928676,0.0410202911174611,0.0290655191128878,0.0347126031357673,0.131856233044977,0.0848122041647738,0.00137250584359281,0.108166786582269,0.045394474156305,0.0105886214673712,0.0348365529230883,0.538677415101802,0.00913757352403672,0.0194492078394752,0.396459110915442,0.0166078472078057,0.0633419605971827,0.0492174761394842,0.00256238794718836,0.0336335353617991,0.070636651208501
2011,0.0387801847170983,0.10175160237368,0.0569747556578422,0.874624636712414,0.00544979807488911,0.033474740648972,0.0202310206637886,0.0625780139240253,1.59874854109622,0.0504754982667354,0.00249413877388138,0.148184280641073,0.236794976727686,0.00975363850937589,0.770414393303077,0.419171883716606,0.0437226546927032,0.159784009239699,0.100561040329491,0.0870407194673281,0.140214070533909,0.046592627671438,0.0159940915943992,0.0375922051290748,0.0700056397474848,0.184048280841471,0.0568346660864204,0.0931138251488824,0.017304077345544,0.0722565376029835,0.149656916215922,3.57261805543382,0.00711768163928117,0.0179501876104091,0.0537256684712981,0.0360775213983569,0.0352782744821653,0.136906675055221,0.0890159069736255,0.00136263512304595,0.117583915690687,0.0495656863574314,0.0673125848032564,0.0344249161283862,0.607016892519027,0.00910230672578135,0.0204906421675014,0.453222528097096,0.0160634924412344,0.0743913321446464,0.0581849969386024,0.00253445806950329,0.0328772333178112,0.0785165757866599
2012,0.0382978519692277,0.107461555324429,0.0587239948914519,0.882112217544144,0.00579191022128383,0.0292664966272723,0.0203427727729971,0.0677667013887142,1.60783210419188,0.0527279964820214,0.00276551950283861,0.158083585776889,0.249735202704968,0.0113625337223769,0.895598587751404,0.433533938282634,0.0484482444866396,0.170536115343626,0.098365414075392,0.0869251693880611,0.145862993127981,0.0472455970796989,0.0189679336543832,0.0415063755977464,0.0626294146810931,0.194824196767562,0.061831500820202,0.0830067505803108,0.019382918362672,0.0640975652435232,0.15923148474163,3.76596942258604,0.00809585492227979,0.0206740081578039,0.0458170182832313,0.034540481881987,0.039103301054576,0.129102775313648,0.0942022944223466,0.00141570703358647,0.136891650629507,0.050354425751095,0.0316844451608958,0.0385667684202445,0.581628872206671,0.0102632548973313,0.0202499950968535,0.466842273251797,0.0180479577802257,0.0728219244938106,0.0520579382856808,0.00283593914783574,0.0363154519590858,0.0761974375594754
2013,0.0369671904821605,0.102469647500863,0.0573973198857007,0.883567741488023,0.00576496601532091,0.0305429251254969,0.0198211728044317,0.0684876934056862,1.56630728345464,0.051807918898423,0.00271141622434,0.15667185262644,0.246598057672459,0.0112814187512222,0.949078167232625,0.357039137639442,0.0456923850798476,0.163027290845669,0.0936289210308391,0.0808561789395388,0.14894592746575,0.0480324931210794,0.0174912665134561,0.0406039878814905,0.0597259005296067,0.184919631357213,0.0604764985513769,0.0839010668046918,0.0188518273151195,0.0629773524470532,0.148355966186591,4.1125056881393,0.00751729626183002,0.0201338425265639,0.0457960359050877,0.0333461371243811,0.0383108823111089,0.126574578699491,0.0923448411762824,0.00140383304915463,0.26073327163049,0.048325883651747,0.0294482331060136,0.0383787353377536,0.55700339330761,0.0100296415933475,0.0191569548327245,0.417972718353029,0.0168950410141685,0.0705592766367491,0.0531434142398153,0.00274133139612581,0.0345830271001598,0.0745071068317286